{
  "snapshot": {
    "created": "2022-11-03T17:29:00.42",
    "database": {
      "productVersion": "2.1.210 (2022-01-17)",
      "shortName": "h2",
      "majorVersion": "2",
      "minorVersion": "1",
      "user": "DBUSER",
      "productName": "H2",
      "url": "jdbc:h2:tcp://localhost:9090/mem:dev"
    },
    "objects": {
      "liquibase.structure.core.Catalog": [
        {
          "catalog": {
            "default": true,
            "name": "DEV",
            "snapshotId": "df72100"
          }
        }]
      ,
      "liquibase.structure.core.Column": [
        {
          "column": {
            "name": "AUTHOR",
            "nullable": false,
            "order": "2!{java.lang.Integer}",
            "relation": "liquibase.structure.core.Table#df72108",
            "snapshotId": "df72110",
            "type": {
              "characterOctetLength": "255!{java.lang.Integer}",
              "columnSize": "255!{java.lang.Integer}",
              "columnSizeUnit": "BYTE!{liquibase.structure.core.DataType$ColumnSizeUnit}",
              "dataTypeId": "12!{java.lang.Integer}",
              "typeName": "CHARACTER VARYING"
            }
          }
        },
        {
          "column": {
            "name": "COMMENTS",
            "nullable": true,
            "order": "9!{java.lang.Integer}",
            "relation": "liquibase.structure.core.Table#df72108",
            "snapshotId": "df72117",
            "type": {
              "characterOctetLength": "255!{java.lang.Integer}",
              "columnSize": "255!{java.lang.Integer}",
              "columnSizeUnit": "BYTE!{liquibase.structure.core.DataType$ColumnSizeUnit}",
              "dataTypeId": "12!{java.lang.Integer}",
              "typeName": "CHARACTER VARYING"
            }
          }
        },
        {
          "column": {
            "name": "CONTEXTS",
            "nullable": true,
            "order": "12!{java.lang.Integer}",
            "relation": "liquibase.structure.core.Table#df72108",
            "snapshotId": "df72120",
            "type": {
              "characterOctetLength": "255!{java.lang.Integer}",
              "columnSize": "255!{java.lang.Integer}",
              "columnSizeUnit": "BYTE!{liquibase.structure.core.DataType$ColumnSizeUnit}",
              "dataTypeId": "12!{java.lang.Integer}",
              "typeName": "CHARACTER VARYING"
            }
          }
        },
        {
          "column": {
            "name": "DATEEXECUTED",
            "nullable": false,
            "order": "4!{java.lang.Integer}",
            "relation": "liquibase.structure.core.Table#df72108",
            "snapshotId": "df72112",
            "type": {
              "characterOctetLength": "26!{java.lang.Integer}",
              "columnSizeUnit": "BYTE!{liquibase.structure.core.DataType$ColumnSizeUnit}",
              "dataTypeId": "93!{java.lang.Integer}",
              "typeName": "TIMESTAMP"
            }
          }
        },
        {
          "column": {
            "name": "DEPLOYMENT_ID",
            "nullable": true,
            "order": "14!{java.lang.Integer}",
            "relation": "liquibase.structure.core.Table#df72108",
            "snapshotId": "df72122",
            "type": {
              "characterOctetLength": "10!{java.lang.Integer}",
              "columnSize": "10!{java.lang.Integer}",
              "columnSizeUnit": "BYTE!{liquibase.structure.core.DataType$ColumnSizeUnit}",
              "dataTypeId": "12!{java.lang.Integer}",
              "typeName": "CHARACTER VARYING"
            }
          }
        },
        {
          "column": {
            "name": "DESCRIPTION",
            "nullable": true,
            "order": "8!{java.lang.Integer}",
            "relation": "liquibase.structure.core.Table#df72108",
            "snapshotId": "df72116",
            "type": {
              "characterOctetLength": "255!{java.lang.Integer}",
              "columnSize": "255!{java.lang.Integer}",
              "columnSizeUnit": "BYTE!{liquibase.structure.core.DataType$ColumnSizeUnit}",
              "dataTypeId": "12!{java.lang.Integer}",
              "typeName": "CHARACTER VARYING"
            }
          }
        },
        {
          "column": {
            "name": "EXECTYPE",
            "nullable": false,
            "order": "6!{java.lang.Integer}",
            "relation": "liquibase.structure.core.Table#df72108",
            "snapshotId": "df72114",
            "type": {
              "characterOctetLength": "10!{java.lang.Integer}",
              "columnSize": "10!{java.lang.Integer}",
              "columnSizeUnit": "BYTE!{liquibase.structure.core.DataType$ColumnSizeUnit}",
              "dataTypeId": "12!{java.lang.Integer}",
              "typeName": "CHARACTER VARYING"
            }
          }
        },
        {
          "column": {
            "name": "FILENAME",
            "nullable": false,
            "order": "3!{java.lang.Integer}",
            "relation": "liquibase.structure.core.Table#df72108",
            "snapshotId": "df72111",
            "type": {
              "characterOctetLength": "255!{java.lang.Integer}",
              "columnSize": "255!{java.lang.Integer}",
              "columnSizeUnit": "BYTE!{liquibase.structure.core.DataType$ColumnSizeUnit}",
              "dataTypeId": "12!{java.lang.Integer}",
              "typeName": "CHARACTER VARYING"
            }
          }
        },
        {
          "column": {
            "name": "ID",
            "nullable": false,
            "order": "1!{java.lang.Integer}",
            "relation": "liquibase.structure.core.Table#df72102",
            "snapshotId": "df72104",
            "type": {
              "characterOctetLength": "32!{java.lang.Integer}",
              "columnSizeUnit": "BYTE!{liquibase.structure.core.DataType$ColumnSizeUnit}",
              "dataTypeId": "4!{java.lang.Integer}",
              "radix": "2!{java.lang.Integer}",
              "typeName": "INTEGER"
            }
          }
        },
        {
          "column": {
            "name": "ID",
            "nullable": false,
            "order": "1!{java.lang.Integer}",
            "relation": "liquibase.structure.core.Table#df72135",
            "snapshotId": "df72137",
            "type": {
              "characterOctetLength": "32!{java.lang.Integer}",
              "columnSizeUnit": "BYTE!{liquibase.structure.core.DataType$ColumnSizeUnit}",
              "dataTypeId": "4!{java.lang.Integer}",
              "radix": "2!{java.lang.Integer}",
              "typeName": "INTEGER"
            }
          }
        },
        {
          "column": {
            "name": "ID",
            "nullable": false,
            "order": "1!{java.lang.Integer}",
            "relation": "liquibase.structure.core.Table#df72130",
            "snapshotId": "df72132",
            "type": {
              "characterOctetLength": "32!{java.lang.Integer}",
              "columnSizeUnit": "BYTE!{liquibase.structure.core.DataType$ColumnSizeUnit}",
              "dataTypeId": "4!{java.lang.Integer}",
              "radix": "2!{java.lang.Integer}",
              "typeName": "INTEGER"
            }
          }
        },
        {
          "column": {
            "name": "ID",
            "nullable": false,
            "order": "1!{java.lang.Integer}",
            "relation": "liquibase.structure.core.Table#df72108",
            "snapshotId": "df72109",
            "type": {
              "characterOctetLength": "255!{java.lang.Integer}",
              "columnSize": "255!{java.lang.Integer}",
              "columnSizeUnit": "BYTE!{liquibase.structure.core.DataType$ColumnSizeUnit}",
              "dataTypeId": "12!{java.lang.Integer}",
              "typeName": "CHARACTER VARYING"
            }
          }
        },
        {
          "column": {
            "name": "ID",
            "nullable": false,
            "order": "1!{java.lang.Integer}",
            "relation": "liquibase.structure.core.Table#df72123",
            "snapshotId": "df72125",
            "type": {
              "characterOctetLength": "32!{java.lang.Integer}",
              "columnSizeUnit": "BYTE!{liquibase.structure.core.DataType$ColumnSizeUnit}",
              "dataTypeId": "4!{java.lang.Integer}",
              "radix": "2!{java.lang.Integer}",
              "typeName": "INTEGER"
            }
          }
        },
        {
          "column": {
            "name": "LABELS",
            "nullable": true,
            "order": "13!{java.lang.Integer}",
            "relation": "liquibase.structure.core.Table#df72108",
            "snapshotId": "df72121",
            "type": {
              "characterOctetLength": "255!{java.lang.Integer}",
              "columnSize": "255!{java.lang.Integer}",
              "columnSizeUnit": "BYTE!{liquibase.structure.core.DataType$ColumnSizeUnit}",
              "dataTypeId": "12!{java.lang.Integer}",
              "typeName": "CHARACTER VARYING"
            }
          }
        },
        {
          "column": {
            "name": "LIQUIBASE",
            "nullable": true,
            "order": "11!{java.lang.Integer}",
            "relation": "liquibase.structure.core.Table#df72108",
            "snapshotId": "df72119",
            "type": {
              "characterOctetLength": "20!{java.lang.Integer}",
              "columnSize": "20!{java.lang.Integer}",
              "columnSizeUnit": "BYTE!{liquibase.structure.core.DataType$ColumnSizeUnit}",
              "dataTypeId": "12!{java.lang.Integer}",
              "typeName": "CHARACTER VARYING"
            }
          }
        },
        {
          "column": {
            "name": "LOCKED",
            "nullable": false,
            "order": "2!{java.lang.Integer}",
            "relation": "liquibase.structure.core.Table#df72123",
            "snapshotId": "df72126",
            "type": {
              "characterOctetLength": "1!{java.lang.Integer}",
              "columnSizeUnit": "BYTE!{liquibase.structure.core.DataType$ColumnSizeUnit}",
              "dataTypeId": "16!{java.lang.Integer}",
              "typeName": "BOOLEAN"
            }
          }
        },
        {
          "column": {
            "name": "LOCKEDBY",
            "nullable": true,
            "order": "4!{java.lang.Integer}",
            "relation": "liquibase.structure.core.Table#df72123",
            "snapshotId": "df72128",
            "type": {
              "characterOctetLength": "255!{java.lang.Integer}",
              "columnSize": "255!{java.lang.Integer}",
              "columnSizeUnit": "BYTE!{liquibase.structure.core.DataType$ColumnSizeUnit}",
              "dataTypeId": "12!{java.lang.Integer}",
              "typeName": "CHARACTER VARYING"
            }
          }
        },
        {
          "column": {
            "name": "LOCKGRANTED",
            "nullable": true,
            "order": "3!{java.lang.Integer}",
            "relation": "liquibase.structure.core.Table#df72123",
            "snapshotId": "df72127",
            "type": {
              "characterOctetLength": "26!{java.lang.Integer}",
              "columnSizeUnit": "BYTE!{liquibase.structure.core.DataType$ColumnSizeUnit}",
              "dataTypeId": "93!{java.lang.Integer}",
              "typeName": "TIMESTAMP"
            }
          }
        },
        {
          "column": {
            "name": "MD5SUM",
            "nullable": true,
            "order": "7!{java.lang.Integer}",
            "relation": "liquibase.structure.core.Table#df72108",
            "snapshotId": "df72115",
            "type": {
              "characterOctetLength": "35!{java.lang.Integer}",
              "columnSize": "35!{java.lang.Integer}",
              "columnSizeUnit": "BYTE!{liquibase.structure.core.DataType$ColumnSizeUnit}",
              "dataTypeId": "12!{java.lang.Integer}",
              "typeName": "CHARACTER VARYING"
            }
          }
        },
        {
          "column": {
            "name": "NAME",
            "nullable": false,
            "order": "2!{java.lang.Integer}",
            "relation": "liquibase.structure.core.Table#df72102",
            "snapshotId": "df72105",
            "type": {
              "characterOctetLength": "12!{java.lang.Integer}",
              "columnSize": "12!{java.lang.Integer}",
              "columnSizeUnit": "BYTE!{liquibase.structure.core.DataType$ColumnSizeUnit}",
              "dataTypeId": "12!{java.lang.Integer}",
              "typeName": "CHARACTER VARYING"
            }
          }
        },
        {
          "column": {
            "name": "NAME",
            "nullable": false,
            "order": "2!{java.lang.Integer}",
            "relation": "liquibase.structure.core.Table#df72135",
            "snapshotId": "df72138",
            "type": {
              "characterOctetLength": "30!{java.lang.Integer}",
              "columnSize": "30!{java.lang.Integer}",
              "columnSizeUnit": "BYTE!{liquibase.structure.core.DataType$ColumnSizeUnit}",
              "dataTypeId": "12!{java.lang.Integer}",
              "typeName": "CHARACTER VARYING"
            }
          }
        },
        {
          "column": {
            "name": "NAME",
            "nullable": true,
            "order": "2!{java.lang.Integer}",
            "relation": "liquibase.structure.core.Table#df72130",
            "snapshotId": "df72133",
            "type": {
              "characterOctetLength": "30!{java.lang.Integer}",
              "columnSize": "30!{java.lang.Integer}",
              "columnSizeUnit": "BYTE!{liquibase.structure.core.DataType$ColumnSizeUnit}",
              "dataTypeId": "12!{java.lang.Integer}",
              "typeName": "CHARACTER VARYING"
            }
          }
        },
        {
          "column": {
            "name": "ORDEREXECUTED",
            "nullable": false,
            "order": "5!{java.lang.Integer}",
            "relation": "liquibase.structure.core.Table#df72108",
            "snapshotId": "df72113",
            "type": {
              "characterOctetLength": "32!{java.lang.Integer}",
              "columnSizeUnit": "BYTE!{liquibase.structure.core.DataType$ColumnSizeUnit}",
              "dataTypeId": "4!{java.lang.Integer}",
              "radix": "2!{java.lang.Integer}",
              "typeName": "INTEGER"
            }
          }
        },
        {
          "column": {
            "name": "TAG",
            "nullable": true,
            "order": "10!{java.lang.Integer}",
            "relation": "liquibase.structure.core.Table#df72108",
            "snapshotId": "df72118",
            "type": {
              "characterOctetLength": "255!{java.lang.Integer}",
              "columnSize": "255!{java.lang.Integer}",
              "columnSizeUnit": "BYTE!{liquibase.structure.core.DataType$ColumnSizeUnit}",
              "dataTypeId": "12!{java.lang.Integer}",
              "typeName": "CHARACTER VARYING"
            }
          }
        },
        {
          "column": {
            "name": "TYPE",
            "nullable": true,
            "order": "3!{java.lang.Integer}",
            "relation": "liquibase.structure.core.Table#df72102",
            "snapshotId": "df72106",
            "type": {
              "characterOctetLength": "25!{java.lang.Integer}",
              "columnSize": "25!{java.lang.Integer}",
              "columnSizeUnit": "BYTE!{liquibase.structure.core.DataType$ColumnSizeUnit}",
              "dataTypeId": "12!{java.lang.Integer}",
              "typeName": "CHARACTER VARYING"
            }
          }
        }]
      ,
      "liquibase.structure.core.Index": [
        {
          "index": {
            "columns": [
              "liquibase.structure.core.Column#df72132"]
            ,
            "name": "PRIMARY_KEY_2",
            "snapshotId": "df72131",
            "table": "liquibase.structure.core.Table#df72130",
            "unique": true
          }
        },
        {
          "index": {
            "columns": [
              "liquibase.structure.core.Column#df72137"]
            ,
            "name": "PRIMARY_KEY_3",
            "snapshotId": "df72136",
            "table": "liquibase.structure.core.Table#df72135",
            "unique": true
          }
        },
        {
          "index": {
            "columns": [
              "liquibase.structure.core.Column#df72104"]
            ,
            "name": "PRIMARY_KEY_A",
            "snapshotId": "df72103",
            "table": "liquibase.structure.core.Table#df72102",
            "unique": true
          }
        },
        {
          "index": {
            "columns": [
              "liquibase.structure.core.Column#df72125"]
            ,
            "name": "PRIMARY_KEY_D",
            "snapshotId": "df72124",
            "table": "liquibase.structure.core.Table#df72123",
            "unique": true
          }
        }]
      ,
      "liquibase.structure.core.PrimaryKey": [
        {
          "primaryKey": {
            "backingIndex": "liquibase.structure.core.Index#df72136",
            "columns": [
              "liquibase.structure.core.Column#df72137"]
            ,
            "name": "CONSTRAINT_3",
            "snapshotId": "df72139",
            "table": "liquibase.structure.core.Table#df72135"
          }
        },
        {
          "primaryKey": {
            "backingIndex": "liquibase.structure.core.Index#df72103",
            "columns": [
              "liquibase.structure.core.Column#df72104"]
            ,
            "name": "CONSTRAINT_A",
            "snapshotId": "df72107",
            "table": "liquibase.structure.core.Table#df72102"
          }
        },
        {
          "primaryKey": {
            "backingIndex": "liquibase.structure.core.Index#df72131",
            "columns": [
              "liquibase.structure.core.Column#df72132"]
            ,
            "name": "PK_CARDTYPE",
            "snapshotId": "df72134",
            "table": "liquibase.structure.core.Table#df72130"
          }
        },
        {
          "primaryKey": {
            "backingIndex": "liquibase.structure.core.Index#df72124",
            "columns": [
              "liquibase.structure.core.Column#df72125"]
            ,
            "name": "PK_DATABASECHANGELOGLOCK",
            "snapshotId": "df72129",
            "table": "liquibase.structure.core.Table#df72123"
          }
        }]
      ,
      "liquibase.structure.core.Schema": [
        {
          "schema": {
            "catalog": "liquibase.structure.core.Catalog#df72100",
            "default": true,
            "name": "PUBLIC",
            "snapshotId": "df72101"
          }
        }]
      ,
      "liquibase.structure.core.Table": [
        {
          "table": {
            "columns": [
              "liquibase.structure.core.Column#df72104",
              "liquibase.structure.core.Column#df72105",
              "liquibase.structure.core.Column#df72106"]
            ,
            "default_tablespace": false,
            "indexes": [
              "liquibase.structure.core.Index#df72103"]
            ,
            "name": "ACCOUNTS",
            "primaryKey": "liquibase.structure.core.PrimaryKey#df72107",
            "schema": "liquibase.structure.core.Schema#df72101",
            "snapshotId": "df72102"
          }
        },
        {
          "table": {
            "columns": [
              "liquibase.structure.core.Column#df72137",
              "liquibase.structure.core.Column#df72138"]
            ,
            "default_tablespace": false,
            "indexes": [
              "liquibase.structure.core.Index#df72136"]
            ,
            "name": "CARDS",
            "primaryKey": "liquibase.structure.core.PrimaryKey#df72139",
            "schema": "liquibase.structure.core.Schema#df72101",
            "snapshotId": "df72135"
          }
        },
        {
          "table": {
            "columns": [
              "liquibase.structure.core.Column#df72132",
              "liquibase.structure.core.Column#df72133"]
            ,
            "default_tablespace": false,
            "indexes": [
              "liquibase.structure.core.Index#df72131"]
            ,
            "name": "CARDTYPE",
            "primaryKey": "liquibase.structure.core.PrimaryKey#df72134",
            "schema": "liquibase.structure.core.Schema#df72101",
            "snapshotId": "df72130"
          }
        },
        {
          "table": {
            "columns": [
              "liquibase.structure.core.Column#df72109",
              "liquibase.structure.core.Column#df72110",
              "liquibase.structure.core.Column#df72111",
              "liquibase.structure.core.Column#df72112",
              "liquibase.structure.core.Column#df72113",
              "liquibase.structure.core.Column#df72114",
              "liquibase.structure.core.Column#df72115",
              "liquibase.structure.core.Column#df72116",
              "liquibase.structure.core.Column#df72117",
              "liquibase.structure.core.Column#df72118",
              "liquibase.structure.core.Column#df72119",
              "liquibase.structure.core.Column#df72120",
              "liquibase.structure.core.Column#df72121",
              "liquibase.structure.core.Column#df72122"]
            ,
            "default_tablespace": false,
            "name": "DATABASECHANGELOG",
            "schema": "liquibase.structure.core.Schema#df72101",
            "snapshotId": "df72108"
          }
        },
        {
          "table": {
            "columns": [
              "liquibase.structure.core.Column#df72125",
              "liquibase.structure.core.Column#df72126",
              "liquibase.structure.core.Column#df72127",
              "liquibase.structure.core.Column#df72128"]
            ,
            "default_tablespace": false,
            "indexes": [
              "liquibase.structure.core.Index#df72124"]
            ,
            "name": "DATABASECHANGELOGLOCK",
            "primaryKey": "liquibase.structure.core.PrimaryKey#df72129",
            "schema": "liquibase.structure.core.Schema#df72101",
            "snapshotId": "df72123"
          }
        }]
      
    },
    "snapshotControl": {
      "snapshotControl": {
        "includedType": [
          "liquibase.structure.core.Catalog",
          "liquibase.structure.core.Column",
          "liquibase.structure.core.ForeignKey",
          "liquibase.structure.core.Index",
          "liquibase.structure.core.PrimaryKey",
          "liquibase.structure.core.Schema",
          "liquibase.structure.core.Sequence",
          "liquibase.structure.core.Table",
          "liquibase.structure.core.UniqueConstraint",
          "liquibase.structure.core.View"]
        
      }
    }
  }
}
